<?xml version="1.0" encoding="UTF-8" standalone="no"?>
<svg
   xmlns:dc="http://purl.org/dc/elements/1.1/"
   xmlns:cc="http://creativecommons.org/ns#"
   xmlns:rdf="http://www.w3.org/1999/02/22-rdf-syntax-ns#"
   xmlns:svg="http://www.w3.org/2000/svg"
   xmlns="http://www.w3.org/2000/svg"
   xmlns:xlink="http://www.w3.org/1999/xlink"
   xmlns:sodipodi="http://sodipodi.sourceforge.net/DTD/sodipodi-0.dtd"
   xmlns:inkscape="http://www.inkscape.org/namespaces/inkscape"
   width="18"
   height="16"
   viewBox="0 0 4.7624998 4.2333332"
   version="1.1"
   id="svg8"
   inkscape:version="1.0.1 (3bc2e813f5, 2020-09-07)"
   sodipodi:docname="ActivityParameterNode.svg">
  <metadata
     id="metadata16">
    <rdf:RDF>
      <cc:Work
         rdf:about="">
        <dc:format>image/svg+xml</dc:format>
        <dc:type
           rdf:resource="http://purl.org/dc/dcmitype/StillImage" />
      </cc:Work>
    </rdf:RDF>
  </metadata>
  <defs
     id="defs2">
    <linearGradient
       inkscape:collect="always"
       id="linearGradient872">
      <stop
         style="stop-color:#cae2f9;stop-opacity:1;"
         offset="0"
         id="stop868" />
      <stop
         style="stop-color:#fdfeff;stop-opacity:1"
         offset="1"
         id="stop870" />
    </linearGradient>
    <linearGradient
       inkscape:collect="always"
       xlink:href="#linearGradient872"
       id="linearGradient860"
       x1="-3.1816356"
       y1="0.41447225"
       x2="-0.14723943"
       y2="3.0033629"
       gradientUnits="userSpaceOnUse"
       gradientTransform="matrix(1.0062908,0,0,1.1065083,4.1188347,-0.21744142)" />
    <linearGradient
       inkscape:collect="always"
       xlink:href="#linearGradient872"
       id="linearGradient885"
       x1="0.60931593"
       y1="2.0040197"
       x2="1.7171373"
       y2="2.0040197"
       gradientUnits="userSpaceOnUse"
       gradientTransform="matrix(0.86586452,0,0,0.86586452,0.07866148,0.27926977)" />
  </defs>
  <sodipodi:namedview
     id="base"
     pagecolor="#ffffff"
     bordercolor="#666666"
     borderopacity="1.0"
     inkscape:pageopacity="0"
     inkscape:pageshadow="2"
     inkscape:zoom="32.71924"
     inkscape:cx="13.81862"
     inkscape:cy="10.679306"
     inkscape:document-units="mm"
     inkscape:current-layer="g882"
     inkscape:document-rotation="0"
     showgrid="false"
     inkscape:pagecheckerboard="false"
     inkscape:window-width="2416"
     inkscape:window-height="1410"
     inkscape:window-x="501"
     inkscape:window-y="352"
     inkscape:window-maximized="0"
     units="px" />
  <g
     id="g13">
    <g
       id="g882">
      <rect
         style="fill:url(#linearGradient860);fill-opacity:1;stroke:#4d81b4;stroke-width:0.223353;stroke-linecap:round;stroke-miterlimit:4;stroke-dasharray:none;stroke-dashoffset:0.300095;stroke-opacity:1"
         id="rect852"
         width="3.2526383"
         height="2.5723052"
         x="1.1539816"
         y="0.72832686"
         ry="0.91048473" />
      <path
         id="rect881"
         style="fill:url(#linearGradient885);fill-opacity:1;stroke:#4d81b4;stroke-width:0.183275;stroke-linejoin:bevel;stroke-miterlimit:4;stroke-dasharray:none;stroke-dashoffset:0;stroke-opacity:1"
         d="M 0.6780704,1.6924961 H 1.4936458 V 2.3364628 H 0.6780704 Z" />
    </g>
  </g>
</svg>
