<?xml version="1.0" encoding="UTF-8" standalone="no"?>
<svg
   width="18"
   height="16"
   viewBox="0 0 4.7624998 4.2333332"
   version="1.1"
   id="svg8"
   inkscape:version="1.3 (0e150ed, 2023-07-21)"
   sodipodi:docname="BroadcastSignalAction.svg"
   xml:space="preserve"
   xmlns:inkscape="http://www.inkscape.org/namespaces/inkscape"
   xmlns:sodipodi="http://sodipodi.sourceforge.net/DTD/sodipodi-0.dtd"
   xmlns:xlink="http://www.w3.org/1999/xlink"
   xmlns="http://www.w3.org/2000/svg"
   xmlns:svg="http://www.w3.org/2000/svg"
   xmlns:rdf="http://www.w3.org/1999/02/22-rdf-syntax-ns#"
   xmlns:cc="http://creativecommons.org/ns#"
   xmlns:dc="http://purl.org/dc/elements/1.1/"><metadata
     id="metadata30"><rdf:RDF><cc:Work
         rdf:about=""><dc:format>image/svg+xml</dc:format><dc:type
           rdf:resource="http://purl.org/dc/dcmitype/StillImage" /></cc:Work></rdf:RDF></metadata><defs
     id="defs2"><linearGradient
       inkscape:collect="always"
       id="linearGradient872"><stop
         style="stop-color:#cae2f9;stop-opacity:1;"
         offset="0"
         id="stop868" /><stop
         style="stop-color:#fdfeff;stop-opacity:1"
         offset="1"
         id="stop870" /></linearGradient><linearGradient
       inkscape:collect="always"
       xlink:href="#linearGradient872"
       id="linearGradient860"
       x1="-1.3993205"
       y1="1.8995942"
       x2="0.80842233"
       y2="4.3887782"
       gradientUnits="userSpaceOnUse"
       gradientTransform="matrix(1.098074,0,0,1.1297318,3.8665725,0.39663199)" /></defs><sodipodi:namedview
     id="base"
     pagecolor="#ffffff"
     bordercolor="#666666"
     borderopacity="1.0"
     inkscape:pageopacity="0"
     inkscape:pageshadow="2"
     inkscape:zoom="19.374743"
     inkscape:cx="14.038896"
     inkscape:cy="13.290499"
     inkscape:document-units="mm"
     inkscape:current-layer="g882"
     inkscape:document-rotation="0"
     showgrid="false"
     inkscape:pagecheckerboard="false"
     inkscape:window-width="2560"
     inkscape:window-height="1440"
     inkscape:window-x="0"
     inkscape:window-y="0"
     inkscape:window-maximized="0"
     units="px"
     inkscape:showpageshadow="2"
     inkscape:deskcolor="#d1d1d1" /><g
     id="g27"><g
       id="g882"><rect
         style="fill:url(#linearGradient860);fill-opacity:1;stroke:#4d81b4;stroke-width:0.235752;stroke-linecap:round;stroke-miterlimit:4;stroke-dasharray:none;stroke-dashoffset:0.300095;stroke-opacity:1"
         id="rect852"
         width="3.54931"
         height="2.6262929"
         x="0.63129652"
         y="1.3622501"
         ry="0.73401284" /><g
         id="g882-8"
         transform="translate(5.2043106,0.17165351)"><path
           d="M -4.3571702,2.5879074 V 2.4875537 l 0.7391431,-0.3493078 0.048247,0.098424 -0.6349297,0.3010608 0.6349297,0.3029908 -0.048247,0.096494 z"
           style="font-style:normal;font-variant:normal;font-weight:normal;font-stretch:normal;font-size:63.5px;line-height:1.25;font-family:Caladea;-inkscape-font-specification:Caladea;letter-spacing:0px;word-spacing:0px;fill:#4d81b4;fill-opacity:1;stroke:none;stroke-width:0.0550498"
           id="path847" /><path
           d="m -1.2116516,2.4720026 v 0.1003537 l -0.739143,0.3493078 -0.048247,-0.096494 0.6349297,-0.3029908 -0.6349297,-0.3010608 0.048247,-0.098424 z"
           style="font-style:normal;font-variant:normal;font-weight:normal;font-stretch:normal;font-size:63.5px;line-height:1.25;font-family:Caladea;-inkscape-font-specification:Caladea;letter-spacing:0px;word-spacing:0px;fill:#4d81b4;fill-opacity:1;stroke:none;stroke-width:0.0550498"
           id="path851" /><text
           xml:space="preserve"
           style="font-style:normal;font-weight:normal;font-size:2.11667px;line-height:1.25;font-family:sans-serif;letter-spacing:0px;word-spacing:0px;fill:#223a50;fill-opacity:1;stroke:none;stroke-width:0.264583"
           x="-3.4741764"
           y="3.2608039"
           id="text844"><tspan
             sodipodi:role="line"
             id="tspan842"
             x="-3.4741764"
             y="3.2608039"
             style="font-style:normal;font-variant:normal;font-weight:bold;font-stretch:normal;font-size:2.11667px;font-family:Arial;-inkscape-font-specification:Arial;fill:#223a50;fill-opacity:1;stroke-width:0.264583">S</tspan></text></g><g
         id="g917"
         transform="rotate(-90,0.44706509,1.075761)"><path
           style="fill:#2e4a85;fill-opacity:1;stroke:none;stroke-width:0.341112px;stroke-linecap:butt;stroke-linejoin:miter;stroke-opacity:1"
           d="M 0.74315311,2.8545066 V 1.6345688 L 1.4370703,2.2445377 Z"
           id="path856-7"
           sodipodi:nodetypes="cccc" /><path
           style="fill:#2e4a85;fill-opacity:1;stroke:#2e4a85;stroke-width:0.280466;stroke-linecap:butt;stroke-linejoin:miter;stroke-miterlimit:4;stroke-dasharray:none;stroke-opacity:1"
           d="M -0.14974752,2.2543499 H 0.81707969"
           id="path868" /></g><g
         id="g917-3"
         transform="rotate(-90,1.2470789,0.28431555)"><path
           style="fill:#2e4a85;fill-opacity:1;stroke:none;stroke-width:0.341112px;stroke-linecap:butt;stroke-linejoin:miter;stroke-opacity:1"
           d="M 0.74315311,2.8545066 V 1.6345688 L 1.4370703,2.2445377 Z"
           id="path856-7-9"
           sodipodi:nodetypes="cccc" /><path
           style="fill:#2e4a85;fill-opacity:1;stroke:#2e4a85;stroke-width:0.280466;stroke-linecap:butt;stroke-linejoin:miter;stroke-miterlimit:4;stroke-dasharray:none;stroke-opacity:1"
           d="M -0.14974752,2.2543499 H 0.81707969"
           id="path868-0" /></g></g></g></svg>
