<?xml version="1.0" encoding="UTF-8" standalone="no"?>
<svg
   xmlns:dc="http://purl.org/dc/elements/1.1/"
   xmlns:cc="http://creativecommons.org/ns#"
   xmlns:rdf="http://www.w3.org/1999/02/22-rdf-syntax-ns#"
   xmlns:svg="http://www.w3.org/2000/svg"
   xmlns="http://www.w3.org/2000/svg"
   xmlns:sodipodi="http://sodipodi.sourceforge.net/DTD/sodipodi-0.dtd"
   xmlns:inkscape="http://www.inkscape.org/namespaces/inkscape"
   width="18"
   height="16"
   viewBox="0 0 4.7624999 4.2333332"
   version="1.1"
   id="svg8"
   inkscape:version="1.0.1 (3bc2e813f5, 2020-09-07)"
   sodipodi:docname="Expression.svg">
  
  <sodipodi:namedview
     id="base"
     pagecolor="#ffffff"
     bordercolor="#666666"
     borderopacity="1.0"
     inkscape:pageopacity="0"
     inkscape:pageshadow="2"
     inkscape:zoom="22.523446"
     inkscape:cx="10.967323"
     inkscape:cy="-3.7196464"
     inkscape:document-units="mm"
     inkscape:current-layer="g882"
     inkscape:document-rotation="0"
     showgrid="false"
     inkscape:pagecheckerboard="false"
     inkscape:window-width="3840"
     inkscape:window-height="1995"
     inkscape:window-x="1"
     inkscape:window-y="2160"
     inkscape:window-maximized="1"
     units="px" />
  
  <g>
    <g
       id="g882">
      <text
         xml:space="preserve"
         style="font-style:normal;font-variant:normal;font-weight:normal;font-stretch:normal;font-size:2.15713px;line-height:1.25;font-family:Arial;-inkscape-font-specification:Arial;letter-spacing:0.201083px;word-spacing:0px;fill:#4d81b4;fill-opacity:1;stroke:none;stroke-width:0.269641"
         x="0.36166811"
         y="2.5406144"
         id="text857"><tspan
           sodipodi:role="line"
           id="tspan855"
           x="0.36166811"
           y="2.5406144"
           style="font-style:normal;font-variant:normal;font-weight:bold;font-stretch:normal;font-size:2.15713px;font-family:Arial;-inkscape-font-specification:Arial;fill:#2e4f6e;fill-opacity:1;stroke-width:0.269641">x+y</tspan></text>
    </g>
  </g>
</svg>
