<?xml version="1.0" encoding="UTF-8" standalone="no"?>
<svg
   width="18"
   height="16"
   viewBox="0 0 4.7624999 4.2333332"
   version="1.1"
   id="svg8"
   inkscape:version="1.3 (0e150ed, 2023-07-21)"
   sodipodi:docname="GeneralizationSet.svg"
   xmlns:inkscape="http://www.inkscape.org/namespaces/inkscape"
   xmlns:sodipodi="http://sodipodi.sourceforge.net/DTD/sodipodi-0.dtd"
   xmlns="http://www.w3.org/2000/svg"
   xmlns:svg="http://www.w3.org/2000/svg">
  <defs
     id="defs1" />
  <sodipodi:namedview
     id="base"
     pagecolor="#ffffff"
     bordercolor="#666666"
     borderopacity="1.0"
     inkscape:pageopacity="0"
     inkscape:pageshadow="2"
     inkscape:zoom="16.703029"
     inkscape:cx="26.641874"
     inkscape:cy="19.427614"
     inkscape:document-units="mm"
     inkscape:current-layer="g1"
     inkscape:document-rotation="0"
     showgrid="false"
     inkscape:pagecheckerboard="false"
     inkscape:window-width="2560"
     inkscape:window-height="1440"
     inkscape:window-x="0"
     inkscape:window-y="0"
     inkscape:window-maximized="0"
     units="px"
     inkscape:showpageshadow="2"
     inkscape:deskcolor="#d1d1d1" />
  <g
     id="g1">
    <g
       id="g882"
       transform="matrix(0.79466251,0,0,0.77246427,-0.74222024,0.16827525)"
       style="stroke-width:1.27635">
      <g
         id="g926"
         transform="matrix(0.02127842,0.02223643,-0.02223643,0.02127842,2.1636462,-1.3796919)"
         style="stroke-width:1.27635">
        <g
           id="g917"
           style="stroke-width:1.27635">
          <g
             id="g909"
             transform="rotate(-45,85.671765,73.433333)"
             style="stroke-width:1.27635">
            <path
               style="fill:none;stroke:#4d81b4;stroke-width:12.7635;stroke-linecap:round;stroke-linejoin:miter;stroke-miterlimit:4;stroke-dasharray:none;stroke-opacity:1"
               d="M 103.18084,57.802668 57.816282,102.62748"
               id="path891"
               sodipodi:nodetypes="cc" />
            <g
               id="g902"
               style="stroke-width:1.27635">
              <path
                 style="fill:none;stroke:#4d81b4;stroke-width:12.7635;stroke-linecap:round;stroke-linejoin:round;stroke-miterlimit:4;stroke-dasharray:none;stroke-opacity:1"
                 d="M 122.33232,76.83495 84.02935,38.770389"
                 id="path891-3"
                 sodipodi:nodetypes="cc" />
              <path
                 style="fill:none;stroke:#4d81b4;stroke-width:12.7635;stroke-linecap:round;stroke-linejoin:round;stroke-miterlimit:4;stroke-dasharray:none;stroke-opacity:1"
                 d="M 148.59338,12.390126 84.088955,38.710785"
                 id="path891-3-6"
                 sodipodi:nodetypes="cc" />
              <path
                 style="fill:none;stroke:#4d81b4;stroke-width:12.7635;stroke-linecap:round;stroke-linejoin:round;stroke-miterlimit:4;stroke-dasharray:none;stroke-opacity:1"
                 d="M 148.59335,12.390152 122.27272,76.894551"
                 id="path891-3-6-7"
                 sodipodi:nodetypes="cc" />
            </g>
          </g>
        </g>
      </g>
    </g>
    <g
       id="g882-3"
       transform="matrix(0.83351014,0,0,0.78996702,0.53740831,1.4154056)"
       style="stroke-width:1.23237">
      <g
         id="g926-8"
         transform="matrix(0.02127842,0.02223643,-0.02223643,0.02127842,2.1636462,-1.3796919)"
         style="stroke-width:1.23237">
        <g
           id="g917-0"
           style="stroke-width:1.23237">
          <g
             id="g909-2"
             transform="rotate(-45,85.671765,73.433333)"
             style="stroke-width:1.23237">
            <path
               style="fill:none;stroke:#4d81b4;stroke-width:12.3236;stroke-linecap:round;stroke-linejoin:miter;stroke-miterlimit:4;stroke-dasharray:none;stroke-opacity:1"
               d="M 103.18084,57.802668 57.816282,102.62748"
               id="path891-4"
               sodipodi:nodetypes="cc" />
            <g
               id="g902-8"
               style="stroke-width:1.23237">
              <path
                 style="fill:none;stroke:#4d81b4;stroke-width:12.3237;stroke-linecap:round;stroke-linejoin:round;stroke-miterlimit:4;stroke-dasharray:none;stroke-opacity:1"
                 d="M 122.33232,76.83495 84.02935,38.770389"
                 id="path891-3-3"
                 sodipodi:nodetypes="cc" />
              <path
                 style="fill:none;stroke:#4d81b4;stroke-width:12.3237;stroke-linecap:round;stroke-linejoin:round;stroke-miterlimit:4;stroke-dasharray:none;stroke-opacity:1"
                 d="M 148.59338,12.390126 84.088955,38.710785"
                 id="path891-3-6-9"
                 sodipodi:nodetypes="cc" />
              <path
                 style="fill:none;stroke:#4d81b4;stroke-width:12.3237;stroke-linecap:round;stroke-linejoin:round;stroke-miterlimit:4;stroke-dasharray:none;stroke-opacity:1"
                 d="M 148.59335,12.390152 122.27272,76.894551"
                 id="path891-3-6-7-0"
                 sodipodi:nodetypes="cc" />
            </g>
          </g>
        </g>
      </g>
    </g>
  </g>
</svg>
