<?xml version="1.0" encoding="UTF-8" standalone="no"?>
<svg
   width="18"
   height="16"
   viewBox="0 0 4.7624999 4.2333332"
   version="1.1"
   id="svg8"
   xmlns:xlink="http://www.w3.org/1999/xlink"
   xmlns="http://www.w3.org/2000/svg"
   xmlns:svg="http://www.w3.org/2000/svg">
  <defs
     id="defs2">
    <linearGradient
       id="linearGradient872">
      <stop
         style="stop-color:#cae2f9;stop-opacity:1;"
         offset="0"
         id="stop868" />
      <stop
         style="stop-color:#fdfeff;stop-opacity:1"
         offset="1"
         id="stop870" />
    </linearGradient>
    <linearGradient
       xlink:href="#linearGradient872"
       id="linearGradient874"
       x1="144.28606"
       y1="144.28606"
       x2="23.45978"
       y2="3.8806121"
       gradientUnits="userSpaceOnUse"
       gradientTransform="matrix(0.02749953,0,0,0.02749953,0.07478381,0.0794096)" />
  </defs>
  <g
     id="g2493">
    <g
       id="g882">
      <path
         id="rect881"
         style="fill:url(#linearGradient874);fill-opacity:1;stroke:#4d81b4;stroke-width:0.147143;stroke-linejoin:bevel;stroke-miterlimit:4;stroke-dasharray:none;stroke-dashoffset:0;stroke-opacity:1"
         d="M 0.7199168,0.18612462 H 4.0425832 V 4.0472087 H 0.7199168 Z" />
      <path
         style="fill:none;stroke:#4d81b4;stroke-width:0.105833;stroke-linecap:butt;stroke-linejoin:miter;stroke-miterlimit:4;stroke-dasharray:none;stroke-opacity:1"
         d="M 0.75931004,3.2307897 H 4.0001094"
         id="path883" />
      <path
         style="fill:none;stroke:#4d81b4;stroke-width:0.105833;stroke-linecap:butt;stroke-linejoin:miter;stroke-miterlimit:4;stroke-dasharray:none;stroke-opacity:1"
         d="M 0.76383798,2.4261953 H 4.0065784"
         id="path883-3" />
      <rect
         style="fill:#4b7eb0;fill-opacity:0;stroke:none;stroke-width:0.109139;stroke-miterlimit:4;stroke-dasharray:none;stroke-opacity:0.827451"
         id="rect840"
         width="3.2866614"
         height="2.2400708"
         x="0.71991682"
         y="0.18612462" />
	  <text
         xml:space="preserve"
         style="font-style:normal;font-weight:normal;font-size:1.5875px;line-height:1.25;font-family:sans-serif;letter-spacing:0px;word-spacing:0px;fill:#4d81b4;fill-opacity:1;stroke:none;stroke-width:0.264583"
		 x="1.0192345"
         y="2.0010216"
         id="text844"
         transform="scale(0.96782898,1.0332404)"><tspan
           id="tspan842"
           x="1.0192345"
           y="2.0010216"
           style="font-style:normal;font-variant:normal;font-weight:bold;font-stretch:normal;font-size:1.5875px;font-family:Arial;-inkscape-font-specification:'Arial Bold';fill:#4d81b4;fill-opacity:1;stroke-width:0.264583">&lt;</tspan></text> 
      <text
         xml:space="preserve"
         style="font-style:normal;font-weight:normal;font-size:1.5875px;line-height:1.25;font-family:sans-serif;letter-spacing:0px;word-spacing:0px;fill:#4d81b4;fill-opacity:1;stroke:none;stroke-width:0.264583"
		 x="2.2692345"
         y="2.0010216"
         id="text844"
         transform="scale(0.96782898,1.0332404)"><tspan
           id="tspan842"
           x="2.2692345"
           y="2.0010216"
           style="font-style:normal;font-variant:normal;font-weight:bold;font-stretch:normal;font-size:1.5875px;font-family:Arial;-inkscape-font-specification:'Arial Bold';fill:#4d81b4;fill-opacity:1;stroke-width:0.264583">I</tspan></text> 
      <text
         xml:space="preserve"
         style="font-style:normal;font-weight:normal;font-size:1.5875px;line-height:1.25;font-family:sans-serif;letter-spacing:0px;word-spacing:0px;fill:#4d81b4;fill-opacity:1;stroke:none;stroke-width:0.264583"
		 x="2.9892345"
         y="2.0010216"
         id="text844"
         transform="scale(0.96782898,1.0332404)"><tspan
           id="tspan842"
           x="2.9892345"
           y="2.0010216"
           style="font-style:normal;font-variant:normal;font-weight:bold;font-stretch:normal;font-size:1.5875px;font-family:Arial;-inkscape-font-specification:'Arial Bold';fill:#4d81b4;fill-opacity:1;stroke-width:0.264583">&gt;</tspan></text> 

	</g>
  </g>
</svg>
