<?xml version="1.0" encoding="UTF-8" standalone="no"?>
<svg
   width="18"
   height="16"
   viewBox="0 0 4.7624998 4.2333332"
   version="1.1"
   id="svg8"
   inkscape:version="1.3 (0e150ed, 2023-07-21)"
   sodipodi:docname="LoopNode.svg"
   xml:space="preserve"
   xmlns:inkscape="http://www.inkscape.org/namespaces/inkscape"
   xmlns:sodipodi="http://sodipodi.sourceforge.net/DTD/sodipodi-0.dtd"
   xmlns:xlink="http://www.w3.org/1999/xlink"
   xmlns="http://www.w3.org/2000/svg"
   xmlns:svg="http://www.w3.org/2000/svg"
   xmlns:rdf="http://www.w3.org/1999/02/22-rdf-syntax-ns#"
   xmlns:cc="http://creativecommons.org/ns#"
   xmlns:dc="http://purl.org/dc/elements/1.1/"><metadata
     id="metadata30"><rdf:RDF><cc:Work
         rdf:about=""><dc:format>image/svg+xml</dc:format><dc:type
           rdf:resource="http://purl.org/dc/dcmitype/StillImage" /></cc:Work></rdf:RDF></metadata><defs
     id="defs2"><linearGradient
       inkscape:collect="always"
       id="linearGradient872"><stop
         style="stop-color:#cae2f9;stop-opacity:1;"
         offset="0"
         id="stop868" /><stop
         style="stop-color:#fdfeff;stop-opacity:1"
         offset="1"
         id="stop870" /></linearGradient><linearGradient
       inkscape:collect="always"
       xlink:href="#linearGradient872"
       id="linearGradient860"
       x1="-1.3812866"
       y1="0.36660048"
       x2="-1.411305"
       y2="2.4246745"
       gradientUnits="userSpaceOnUse"
       gradientTransform="matrix(1.1808967,0,0,1.1911972,3.9520391,-0.28607853)" /><linearGradient
       id="linearGradient5591-4"><stop
         style="stop-color:#e0e566;stop-opacity:1;"
         offset="0"
         id="stop5593-0" /><stop
         style="stop-color:#82c448;stop-opacity:1;"
         offset="1"
         id="stop5595-5" /></linearGradient><linearGradient
       id="linearGradient5583-2"><stop
         style="stop-color:#426e4a;stop-opacity:1;"
         offset="0"
         id="stop5585-3" /><stop
         style="stop-color:#669f71;stop-opacity:1;"
         offset="1"
         id="stop5587-3" /></linearGradient><linearGradient
       inkscape:collect="always"
       xlink:href="#linearGradient872"
       id="linearGradient865"
       x1="-47.666786"
       y1="112.97314"
       x2="-163.75984"
       y2="34.596439"
       gradientUnits="userSpaceOnUse"
       gradientTransform="matrix(0.00998666,0,0,0.01146447,-1.5444891,1.8063531)" /></defs><sodipodi:namedview
     id="base"
     pagecolor="#ffffff"
     bordercolor="#666666"
     borderopacity="1.0"
     inkscape:pageopacity="0"
     inkscape:pageshadow="2"
     inkscape:zoom="21.967511"
     inkscape:cx="12.655052"
     inkscape:cy="7.9663099"
     inkscape:document-units="mm"
     inkscape:current-layer="g872"
     inkscape:document-rotation="0"
     showgrid="false"
     inkscape:pagecheckerboard="false"
     inkscape:window-width="2560"
     inkscape:window-height="1387"
     inkscape:window-x="0"
     inkscape:window-y="25"
     inkscape:window-maximized="0"
     units="px"
     inkscape:showpageshadow="2"
     inkscape:deskcolor="#d1d1d1" /><g
     id="g27"><g
       id="g882"><rect
         style="fill:url(#linearGradient860);fill-opacity:1;stroke:#4d81b4;stroke-width:0.251;stroke-linecap:round;stroke-miterlimit:4;stroke-dasharray:0.753, 0.753;stroke-dashoffset:0;stroke-opacity:1"
         id="rect852"
         width="3.8170176"
         height="2.769182"
         x="0.47274122"
         y="0.73207569"
         ry="0.77394843" /><g
         id="g882-8"
         transform="translate(6.0397246,0.13422021)"><rect
           style="fill:#4b7eb0;fill-opacity:0;stroke:none;stroke-width:0.0756102;stroke-miterlimit:4;stroke-dasharray:none;stroke-opacity:0.827451"
           id="rect840"
           width="2.277241"
           height="1.5517111"
           x="1.2306415"
           y="1.4287663" /><g
           id="g872"
           transform="translate(-13.153765,-3.1615317)"><rect
             style="fill:#ffffff;fill-opacity:1;stroke:#4d81b4;stroke-width:0.211667;stroke-linecap:round;stroke-miterlimit:4;stroke-dasharray:none;stroke-dashoffset:0.300095;stroke-opacity:1"
             id="rect852-9"
             width="2.6735449"
             height="1.09065"
             x="8.1653948"
             y="4.5430493"
             ry="0.24948101" /><path
             style="fill:#2d6296;stroke:#4d81b4;stroke-width:0.212;stroke-linecap:round;stroke-linejoin:bevel;stroke-dasharray:none;stroke-opacity:1"
             d="M 9.143003,5.3032084 V 6.0020902"
             id="path1" /></g></g><path
         style="fill:#ffffff;fill-opacity:1;stroke:#ffffff;stroke-width:0.212;stroke-linecap:square;stroke-linejoin:bevel;stroke-dasharray:none;stroke-opacity:1"
         d="M 2.4700416,2.5220002 V 2.6701278"
         id="path2" /></g></g></svg>
