<?xml version="1.0" encoding="UTF-8" standalone="no"?>
<svg
   width="16"
   height="18"
   viewBox="0 0 4.2333332 4.7624999"
   version="1.1"
   id="svg8"
   inkscape:version="1.3 (0e150ed, 2023-07-21)"
   sodipodi:docname="Message_createMessage.svg"
   xml:space="preserve"
   xmlns:inkscape="http://www.inkscape.org/namespaces/inkscape"
   xmlns:sodipodi="http://sodipodi.sourceforge.net/DTD/sodipodi-0.dtd"
   xmlns="http://www.w3.org/2000/svg"
   xmlns:svg="http://www.w3.org/2000/svg"><defs
     id="defs1" /><sodipodi:namedview
     id="base"
     pagecolor="#ffffff"
     bordercolor="#666666"
     borderopacity="1.0"
     inkscape:pageopacity="0"
     inkscape:pageshadow="2"
     inkscape:zoom="21.791082"
     inkscape:cx="2.5239683"
     inkscape:cy="14.38662"
     inkscape:document-units="mm"
     inkscape:current-layer="g837"
     inkscape:document-rotation="0"
     showgrid="false"
     inkscape:pagecheckerboard="false"
     inkscape:window-width="2560"
     inkscape:window-height="1440"
     inkscape:window-x="0"
     inkscape:window-y="0"
     inkscape:window-maximized="0"
     units="px"
     inkscape:showpageshadow="2"
     inkscape:deskcolor="#d1d1d1" /><g
     id="g1"><g
       id="g882"><g
         id="g837"
         transform="matrix(0.54161864,0.63863047,-0.52406693,0.66001907,1.9498323,-1.3540675)"
         style="stroke-width:1.1039"><path
           style="fill:none;stroke:#4d81b4;stroke-width:0.348092;stroke-linecap:round;stroke-linejoin:miter;stroke-miterlimit:3.9;stroke-dasharray:1.04427, 1.04427;stroke-dashoffset:0.522138;stroke-opacity:1"
           d="M 4.3813663,1.0273136 0.4614275,4.8137405"
           id="path891"
           sodipodi:nodetypes="cc" /><path
           style="fill:none;stroke:#4d81b4;stroke-width:0.348092;stroke-linecap:round;stroke-linejoin:round;stroke-miterlimit:4;stroke-dasharray:none;stroke-opacity:1"
           d="M 4.6452014,0.73440933 3.0654818,0.87893948"
           id="path891-3-6-7-3"
           sodipodi:nodetypes="cc" /><path
           style="fill:none;stroke:#4d81b4;stroke-width:0.348092;stroke-linecap:round;stroke-linejoin:round;stroke-miterlimit:4;stroke-dasharray:none;stroke-opacity:1"
           d="M 4.4671583,2.3195374 4.6636315,0.74543405"
           id="path891-3-6-7-3-4"
           sodipodi:nodetypes="cc" /></g></g></g></svg>
