<?xml version="1.0" encoding="UTF-8" standalone="no"?>
<svg
   width="18"
   height="16"
   viewBox="0 0 4.7624999 4.2333332"
   version="1.1"
   id="svg8"
   inkscape:version="1.3 (0e150ed, 2023-07-21)"
   sodipodi:docname="OutputPin.svg"
   xml:space="preserve"
   xmlns:inkscape="http://www.inkscape.org/namespaces/inkscape"
   xmlns:sodipodi="http://sodipodi.sourceforge.net/DTD/sodipodi-0.dtd"
   xmlns:xlink="http://www.w3.org/1999/xlink"
   xmlns="http://www.w3.org/2000/svg"
   xmlns:svg="http://www.w3.org/2000/svg"
   xmlns:rdf="http://www.w3.org/1999/02/22-rdf-syntax-ns#"
   xmlns:cc="http://creativecommons.org/ns#"
   xmlns:dc="http://purl.org/dc/elements/1.1/"><metadata
     id="metadata24"><rdf:RDF><cc:Work
         rdf:about=""><dc:format>image/svg+xml</dc:format><dc:type
           rdf:resource="http://purl.org/dc/dcmitype/StillImage" /></cc:Work></rdf:RDF></metadata><defs
     id="defs2"><linearGradient
       inkscape:collect="always"
       xlink:href="#linearGradient887"
       id="linearGradient881"
       x1="7.4507065"
       y1="1.0978073"
       x2="7.4266696"
       y2="3.1797156"
       gradientUnits="userSpaceOnUse"
       gradientTransform="matrix(0.28904315,0,0,0.4885803,-1.0928512,1.0546801)" /><linearGradient
       inkscape:collect="always"
       id="linearGradient887"><stop
         style="stop-color:#b9c8de;stop-opacity:1;"
         offset="0"
         id="stop883" /><stop
         style="stop-color:#8cabcf;stop-opacity:1"
         offset="0"
         id="stop895" /><stop
         style="stop-color:#8cabcf;stop-opacity:1"
         offset="0.09152599"
         id="stop893" /><stop
         style="stop-color:#b8cce3;stop-opacity:1"
         offset="0.22467582"
         id="stop897" /><stop
         style="stop-color:#7ba3cd;stop-opacity:1;"
         offset="0.33121079"
         id="stop889" /><stop
         style="stop-color:#5c90c5;stop-opacity:1;"
         offset="0.84206724"
         id="stop891" /><stop
         style="stop-color:#3d7ebd;stop-opacity:1"
         offset="1"
         id="stop885" /></linearGradient></defs><sodipodi:namedview
     id="base"
     pagecolor="#ffffff"
     bordercolor="#666666"
     borderopacity="1.0"
     inkscape:pageopacity="0"
     inkscape:pageshadow="2"
     inkscape:zoom="17.708063"
     inkscape:cx="14.682577"
     inkscape:cy="15.868478"
     inkscape:document-units="mm"
     inkscape:current-layer="g882"
     inkscape:document-rotation="0"
     showgrid="false"
     inkscape:pagecheckerboard="false"
     inkscape:window-width="2560"
     inkscape:window-height="1387"
     inkscape:window-x="0"
     inkscape:window-y="25"
     inkscape:window-maximized="0"
     units="px"
     inkscape:showpageshadow="2"
     inkscape:deskcolor="#d1d1d1" /><g
     id="g21"><g
       id="g882"><rect
         style="fill:#4b7eb0;fill-opacity:0;stroke:none;stroke-width:0.0756102;stroke-miterlimit:4;stroke-dasharray:none;stroke-opacity:0.827451"
         id="rect840"
         width="2.277241"
         height="1.5517111"
         x="1.2306415"
         y="1.4287663" /><rect
         style="fill:url(#linearGradient881);fill-opacity:1;stroke:#4d81b4;stroke-width:0.211667;stroke-linecap:round;stroke-miterlimit:4;stroke-dasharray:none;stroke-dashoffset:0.300095;stroke-opacity:1"
         id="rect873"
         width="1.1110818"
         height="1.111082"
         x="0.47583616"
         y="1.5611256"
         ry="0" /><g
         id="g913"
         style="stroke:#2d6296;stroke-opacity:1"
         transform="translate(-5.1923916,-0.93559823)"><g
           id="g1"
           transform="translate(2.3308591)"><path
             style="fill:none;stroke:#2d6296;stroke-width:0.277085;stroke-linecap:round;stroke-linejoin:miter;stroke-miterlimit:3.9;stroke-dasharray:none;stroke-dashoffset:0.415627;stroke-opacity:1"
             d="M 6.9844708,3.0625521 H 5.1285148"
             id="path891-1"
             sodipodi:nodetypes="cc" /><path
             style="fill:none;stroke:#2d6296;stroke-width:0.277085;stroke-linecap:round;stroke-linejoin:round;stroke-miterlimit:4;stroke-dasharray:none;stroke-opacity:1"
             d="M 7.1485582,3.0522649 6.5108289,2.5219035"
             id="path891-3-6-7-3"
             sodipodi:nodetypes="cc" /><path
             style="fill:none;stroke:#2d6296;stroke-width:0.277085;stroke-linecap:round;stroke-linejoin:round;stroke-miterlimit:4;stroke-dasharray:none;stroke-opacity:1"
             d="M 7.1485582,3.0522649 6.510829,3.5826263"
             id="path891-3-6-7-3-2"
             sodipodi:nodetypes="cc" /></g></g></g></g></svg>
