<?xml version="1.0" encoding="UTF-8" standalone="no"?>
<svg
   width="18"
   height="16"
   viewBox="0 0 4.7624998 4.2333332"
   version="1.1"
   id="svg8"
   inkscape:version="1.3 (0e150ed, 2023-07-21)"
   sodipodi:docname="ReadSelfAction.svg"
   xml:space="preserve"
   xmlns:inkscape="http://www.inkscape.org/namespaces/inkscape"
   xmlns:sodipodi="http://sodipodi.sourceforge.net/DTD/sodipodi-0.dtd"
   xmlns:xlink="http://www.w3.org/1999/xlink"
   xmlns="http://www.w3.org/2000/svg"
   xmlns:svg="http://www.w3.org/2000/svg"><defs
     id="defs2"><linearGradient
       inkscape:collect="always"
       id="linearGradient892"><stop
         style="stop-color:#000000;stop-opacity:1;"
         offset="0"
         id="stop888" /><stop
         style="stop-color:#000000;stop-opacity:0;"
         offset="1"
         id="stop890" /></linearGradient><linearGradient
       inkscape:collect="always"
       id="linearGradient872"><stop
         style="stop-color:#cae2f9;stop-opacity:1;"
         offset="0"
         id="stop868" /><stop
         style="stop-color:#fdfeff;stop-opacity:1"
         offset="1"
         id="stop870" /></linearGradient><linearGradient
       inkscape:collect="always"
       xlink:href="#linearGradient872"
       id="linearGradient860"
       x1="-1.3993205"
       y1="1.8995942"
       x2="0.80842233"
       y2="4.3887782"
       gradientUnits="userSpaceOnUse"
       gradientTransform="matrix(0.9319736,0,0,0.95884265,3.62093,0.41288854)" /><linearGradient
       inkscape:collect="always"
       xlink:href="#linearGradient4939"
       id="linearGradient4945"
       x1="1.4333301"
       y1="6.4610124"
       x2="3.0734024"
       y2="8.1045008"
       gradientUnits="userSpaceOnUse" /><linearGradient
       inkscape:collect="always"
       id="linearGradient4939"><stop
         style="stop-color:#d5f3ff;stop-opacity:1;"
         offset="0"
         id="stop4941" /><stop
         style="stop-color:#fcffff;stop-opacity:1"
         offset="1"
         id="stop4943" /></linearGradient><linearGradient
       inkscape:collect="always"
       xlink:href="#linearGradient4939"
       id="linearGradient867"
       gradientUnits="userSpaceOnUse"
       x1="1.4333301"
       y1="6.4610124"
       x2="3.0734024"
       y2="8.1045008" /><radialGradient
       inkscape:collect="always"
       xlink:href="#linearGradient892"
       id="radialGradient894"
       cx="1.2386851"
       cy="1.0627367"
       fx="1.2386851"
       fy="1.0627367"
       r="1.1888268"
       gradientTransform="matrix(1,0,0,0.83748063,0,0.17271529)"
       gradientUnits="userSpaceOnUse" /><linearGradient
       inkscape:collect="always"
       xlink:href="#linearGradient872"
       id="linearGradient874"
       x1="144.28606"
       y1="144.28606"
       x2="23.45978"
       y2="3.8806121"
       gradientUnits="userSpaceOnUse"
       gradientTransform="matrix(0.02182306,0,0,0.01486256,0.67662211,1.1022859)" /></defs><sodipodi:namedview
     id="base"
     pagecolor="#ffffff"
     bordercolor="#666666"
     borderopacity="1.0"
     inkscape:pageopacity="0"
     inkscape:pageshadow="2"
     inkscape:zoom="18.189462"
     inkscape:cx="-13.964129"
     inkscape:cy="2.5839137"
     inkscape:document-units="mm"
     inkscape:current-layer="g2"
     inkscape:document-rotation="0"
     showgrid="false"
     inkscape:pagecheckerboard="false"
     inkscape:window-width="2560"
     inkscape:window-height="1387"
     inkscape:window-x="0"
     inkscape:window-y="25"
     inkscape:window-maximized="0"
     units="px"
     inkscape:showpageshadow="2"
     inkscape:deskcolor="#d1d1d1" /><g
     id="g1"><g
       id="g882"><rect
         style="fill:url(#linearGradient860);fill-opacity:1;stroke:#4d81b4;stroke-width:0.200091;stroke-linecap:round;stroke-miterlimit:4;stroke-dasharray:none;stroke-dashoffset:0.300095;stroke-opacity:1"
         id="rect852"
         width="3.0124226"
         height="2.2290261"
         x="0.87503874"
         y="1.2324421"
         ry="0.6229822" /><g
         id="g905"
         transform="matrix(0.55182515,0,0,0.55182515,1.1208348,1.4169541)"><g
           id="g2"
           transform="translate(0,-0.10543896)"><path
             id="rect881"
             style="fill:url(#linearGradient874);fill-opacity:1;stroke:#4d81b4;stroke-width:0.211667;stroke-linejoin:bevel;stroke-miterlimit:4;stroke-dasharray:none;stroke-dashoffset:0;stroke-opacity:1"
             d="M 1.1885862,1.1599618 H 3.8253845 V 3.2467463 H 1.1885862 Z" /><path
             style="fill:none;stroke:#4d81b4;stroke-width:0.231685;stroke-linecap:butt;stroke-linejoin:miter;stroke-miterlimit:4;stroke-dasharray:none;stroke-dashoffset:0;stroke-opacity:1"
             d="M 2.5069854,1.9889826 V 1.6189603"
             id="path883-3-3" /><path
             style="fill:none;stroke:#4d81b4;stroke-width:0.209482;stroke-linecap:butt;stroke-linejoin:miter;stroke-miterlimit:4;stroke-dasharray:none;stroke-dashoffset:0;stroke-opacity:1"
             d="M 2.5069854,2.6943302 V 2.2974552"
             id="path883-3-3-6" /></g></g><rect
         style="opacity:0.8333;fill:#ffffff;fill-opacity:1;stroke:url(#radialGradient894);stroke-width:0.223213;stroke-linecap:square;stroke-miterlimit:4;stroke-dasharray:none;stroke-dashoffset:0"
         id="rect886"
         width="2.3776536"
         height="1.9912388"
         x="0.049858298"
         y="0.067117244" /><g
         id="g850"
         style="display:inline"
         transform="matrix(0.19456361,0,0,0.19456361,-1.5640006,-204.48235)"><path
           style="fill:none;stroke:#324e6e;stroke-width:1px;stroke-linecap:butt;stroke-linejoin:miter;stroke-opacity:1"
           d="m 12.535948,1057.3138 c 0,0 0.409535,-0.5625 1.699794,-0.5625 1.290259,0 1.658145,0.5 1.658145,0.5"
           id="path4981"
           inkscape:connector-curvature="0"
           sodipodi:nodetypes="czc" /><path
           style="fill:none;stroke:#324e6e;stroke-width:1px;stroke-linecap:round;stroke-linejoin:round;stroke-opacity:1"
           d="m 8.780508,1057.2857 0.5226274,-0.5467 3.3916416,-3.5479 c 0.828641,-0.7734 2.088175,-0.8729 2.088175,1.7014"
           id="path4985"
           inkscape:connector-curvature="0"
           sodipodi:nodetypes="cccc" /><path
           style="display:inline;fill:none;stroke:#324e6e;stroke-width:1px;stroke-linecap:round;stroke-linejoin:round;stroke-opacity:1"
           d="m 17.623497,1058.2071 4.076913,-4.2647 c 0.828641,-0.7734 2.088175,-0.8729 2.088175,1.7015"
           id="path4985-5"
           inkscape:connector-curvature="0"
           sodipodi:nodetypes="ccc" /><circle
           style="fill:url(#linearGradient867);fill-opacity:1;stroke:#324e6e;stroke-width:1.11897;stroke-miterlimit:4;stroke-dasharray:none;stroke-opacity:1"
           id="path4150"
           transform="matrix(0.89367816,0,0,0.89367816,8.471957,1052.0008)"
           cx="2.5156252"
           cy="7.5624995"
           r="2.2187502" /><circle
           style="display:inline;fill:url(#linearGradient4945);fill-opacity:1;stroke:#324e6e;stroke-width:1.11897;stroke-miterlimit:4;stroke-dasharray:none;stroke-opacity:1"
           id="path4150-4"
           transform="matrix(0.89367816,0,0,0.89367816,15.471957,1052.0008)"
           cx="2.5156252"
           cy="7.5624995"
           r="2.2187502" /></g></g></g></svg>
