<?xml version="1.0" encoding="UTF-8" standalone="no"?>
<svg
   width="18"
   height="16"
   viewBox="0 0 4.7624999 4.2333332"
   version="1.1"
   id="svg8"
   inkscape:version="1.3 (0e150ed, 2023-07-21)"
   sodipodi:docname="Slot.svg"
   xml:space="preserve"
   xmlns:inkscape="http://www.inkscape.org/namespaces/inkscape"
   xmlns:sodipodi="http://sodipodi.sourceforge.net/DTD/sodipodi-0.dtd"
   xmlns:xlink="http://www.w3.org/1999/xlink"
   xmlns="http://www.w3.org/2000/svg"
   xmlns:svg="http://www.w3.org/2000/svg"
   xmlns:rdf="http://www.w3.org/1999/02/22-rdf-syntax-ns#"
   xmlns:cc="http://creativecommons.org/ns#"
   xmlns:dc="http://purl.org/dc/elements/1.1/"><metadata
     id="metadata22"><rdf:RDF><cc:Work
         rdf:about=""><dc:format>image/svg+xml</dc:format><dc:type
           rdf:resource="http://purl.org/dc/dcmitype/StillImage" /></cc:Work></rdf:RDF></metadata><defs
     id="defs2"><linearGradient
       inkscape:collect="always"
       id="linearGradient872"><stop
         style="stop-color:#cae2f9;stop-opacity:1;"
         offset="0"
         id="stop868" /><stop
         style="stop-color:#fdfeff;stop-opacity:1"
         offset="1"
         id="stop870" /></linearGradient><linearGradient
       inkscape:collect="always"
       xlink:href="#linearGradient872"
       id="linearGradient874"
       x1="144.28606"
       y1="144.28606"
       x2="23.45978"
       y2="3.8806121"
       gradientUnits="userSpaceOnUse"
       gradientTransform="matrix(0.02182306,0,0,0.01486256,0.67662211,1.1022859)" /><linearGradient
       inkscape:collect="always"
       xlink:href="#linearGradient5023"
       id="linearGradient5029"
       x1="744.95905"
       y1="750.2746"
       x2="747.75623"
       y2="750.27338"
       gradientUnits="userSpaceOnUse"
       gradientTransform="matrix(0.11289916,0.11289916,-0.11289916,0.11289916,3.6349689,-166.27715)" /><linearGradient
       inkscape:collect="always"
       id="linearGradient5023"><stop
         style="stop-color:#1c65a2;stop-opacity:1;"
         offset="0"
         id="stop5025" /><stop
         style="stop-color:#1a5a90;stop-opacity:1"
         offset="1"
         id="stop5027" /></linearGradient><linearGradient
       inkscape:collect="always"
       xlink:href="#linearGradient4999"
       id="linearGradient5005"
       x1="-5.7798839"
       y1="1059.2668"
       x2="-3.7798836"
       y2="1057.2668"
       gradientUnits="userSpaceOnUse"
       gradientTransform="matrix(0.15966353,0,0,0.15966353,3.6349689,-166.27715)" /><linearGradient
       inkscape:collect="always"
       id="linearGradient4999"><stop
         style="stop-color:#467daa;stop-opacity:1"
         offset="0"
         id="stop5001" /><stop
         style="stop-color:#4e87b6;stop-opacity:1"
         offset="1"
         id="stop5003" /></linearGradient><linearGradient
       inkscape:collect="always"
       xlink:href="#linearGradient5015"
       id="linearGradient5021"
       x1="-3.7798836"
       y1="1057.2668"
       x2="-1.7798837"
       y2="1055.2668"
       gradientUnits="userSpaceOnUse"
       gradientTransform="matrix(0.15966353,0,0,0.15966353,3.6349689,-166.27715)" /><linearGradient
       inkscape:collect="always"
       id="linearGradient5015"><stop
         style="stop-color:#9cbbd6;stop-opacity:1"
         offset="0"
         id="stop5017" /><stop
         style="stop-color:#6b9ac3;stop-opacity:1"
         offset="1"
         id="stop5019" /></linearGradient><linearGradient
       inkscape:collect="always"
       xlink:href="#linearGradient5007"
       id="linearGradient5013"
       x1="-5.7798839"
       y1="1055.2668"
       x2="-3.7798836"
       y2="1057.2668"
       gradientUnits="userSpaceOnUse"
       gradientTransform="matrix(0.15966353,0,0,0.15966353,3.6349689,-166.27715)" /><linearGradient
       inkscape:collect="always"
       id="linearGradient5007"><stop
         style="stop-color:#98b9d5;stop-opacity:1"
         offset="0"
         id="stop5009" /><stop
         style="stop-color:#e6eef5;stop-opacity:1"
         offset="1"
         id="stop5011" /></linearGradient><linearGradient
       id="linearGradient5591-4"><stop
         style="stop-color:#e0e566;stop-opacity:1;"
         offset="0"
         id="stop5593-0" /><stop
         style="stop-color:#82c448;stop-opacity:1;"
         offset="1"
         id="stop5595-5" /></linearGradient><linearGradient
       id="linearGradient5583-2"><stop
         style="stop-color:#426e4a;stop-opacity:1;"
         offset="0"
         id="stop5585-3" /><stop
         style="stop-color:#669f71;stop-opacity:1;"
         offset="1"
         id="stop5587-3" /></linearGradient><linearGradient
       inkscape:collect="always"
       xlink:href="#linearGradient872"
       id="linearGradient865"
       x1="-47.666786"
       y1="112.97314"
       x2="-163.75984"
       y2="34.596439"
       gradientUnits="userSpaceOnUse"
       gradientTransform="matrix(0.00998666,0,0,0.01146447,-1.5444891,1.8063531)" /></defs><sodipodi:namedview
     id="base"
     pagecolor="#ffffff"
     bordercolor="#666666"
     borderopacity="1.0"
     inkscape:pageopacity="0"
     inkscape:pageshadow="2"
     inkscape:zoom="17.522691"
     inkscape:cx="-10.272395"
     inkscape:cy="5.6783514"
     inkscape:document-units="mm"
     inkscape:current-layer="g882"
     inkscape:document-rotation="0"
     showgrid="false"
     inkscape:pagecheckerboard="false"
     inkscape:window-width="2560"
     inkscape:window-height="1440"
     inkscape:window-x="0"
     inkscape:window-y="0"
     inkscape:window-maximized="0"
     units="px"
     inkscape:showpageshadow="2"
     inkscape:deskcolor="#d1d1d1" /><g
     id="g19"><g
       id="g882"><g
         id="g905"
         transform="translate(0.82946384,0.39215397)"><path
           id="rect881"
           style="fill:url(#linearGradient874);fill-opacity:1;stroke:#4d81b4;stroke-width:0.211667;stroke-linejoin:bevel;stroke-miterlimit:4;stroke-dasharray:none;stroke-dashoffset:0;stroke-opacity:1"
           d="M 1.1885862,1.1599618 H 3.8253845 V 3.2467463 H 1.1885862 Z" /><path
           style="fill:none;stroke:#4d81b4;stroke-width:0.211667;stroke-linecap:butt;stroke-linejoin:miter;stroke-miterlimit:4;stroke-dasharray:none;stroke-opacity:1"
           d="M 1.4637652,2.8230061 H 3.5502055"
           id="path883-3" /><path
           style="fill:none;stroke:#4d81b4;stroke-width:0.195914;stroke-linecap:butt;stroke-linejoin:miter;stroke-miterlimit:4;stroke-dasharray:none;stroke-dashoffset:0;stroke-opacity:1"
           d="M 2.5069854,1.8571839 V 1.5926006"
           id="path883-3-3" /><path
           style="fill:none;stroke:#4d81b4;stroke-width:0.209482;stroke-linecap:butt;stroke-linejoin:miter;stroke-miterlimit:4;stroke-dasharray:none;stroke-dashoffset:0;stroke-opacity:1"
           d="M 2.5069854,2.4570925 V 2.0602175"
           id="path883-3-3-6" /></g><g
         id="g882-8"
         transform="matrix(1.4822905,0,0,1.4822905,-7.7999649,-3.5706102)"><g
           id="g997"
           transform="translate(3.5917346,0.83363057)"
           inkscape:label="g997"><path
             style="display:inline;fill:url(#linearGradient5029);fill-opacity:1;stroke:none;stroke-width:0.159664"
             d="m 3.8278921,2.5334717 -0.7930456,0.7930488 1.3e-6,-0.7930488 z"
             id="rect4105-9"
             inkscape:connector-curvature="0"
             sodipodi:nodetypes="cccc" /><path
             inkscape:connector-curvature="0"
             style="display:inline;fill:url(#linearGradient5005);fill-opacity:1;stroke:none;stroke-width:0.159664"
             d="M 3.0348467,3.3265205 2.2418023,2.5334717 h 0.7930449 z"
             id="rect4105-9-4"
             sodipodi:nodetypes="cccc" /><path
             style="display:inline;fill:url(#linearGradient5021);fill-opacity:1;stroke:none;stroke-width:0.159664"
             d="m 3.8278921,2.5334717 -0.7930454,-0.7930488 1.1e-6,0.7930488 z"
             id="rect4105-9-8"
             inkscape:connector-curvature="0"
             sodipodi:nodetypes="cccc" /><path
             inkscape:connector-curvature="0"
             style="display:inline;fill:url(#linearGradient5013);fill-opacity:1;stroke:none;stroke-width:0.159664"
             d="M 3.0348467,1.7404229 2.2418023,2.5334717 h 0.7930449 z"
             id="rect4105-9-4-8"
             sodipodi:nodetypes="cccc" /><rect
             style="display:inline;fill:none;stroke:#4d81b4;stroke-width:0.147276;stroke-opacity:1"
             id="rect4105"
             width="1.1780761"
             height="1.1780761"
             x="3.3483593"
             y="-0.94356793"
             rx="0.18529427"
             ry="0.18529427"
             transform="rotate(45)" /></g></g></g></g></svg>
