<?xml version="1.0" encoding="UTF-8" standalone="no"?>
<svg
   width="18"
   height="16"
   viewBox="0 0 4.7624999 4.2333332"
   version="1.1"
   id="svg8"
   inkscape:version="1.3 (0e150ed, 2023-07-21)"
   sodipodi:docname="StateInvariant.svg"
   xml:space="preserve"
   xmlns:inkscape="http://www.inkscape.org/namespaces/inkscape"
   xmlns:sodipodi="http://sodipodi.sourceforge.net/DTD/sodipodi-0.dtd"
   xmlns="http://www.w3.org/2000/svg"
   xmlns:svg="http://www.w3.org/2000/svg"><defs
     id="defs1" /><sodipodi:namedview
     id="base"
     pagecolor="#ffffff"
     bordercolor="#666666"
     borderopacity="1.0"
     inkscape:pageopacity="0"
     inkscape:pageshadow="2"
     inkscape:zoom="22.523446"
     inkscape:cx="10.433572"
     inkscape:cy="3.9958362"
     inkscape:document-units="mm"
     inkscape:current-layer="g882"
     inkscape:document-rotation="0"
     showgrid="false"
     inkscape:pagecheckerboard="false"
     inkscape:window-width="2560"
     inkscape:window-height="1387"
     inkscape:window-x="0"
     inkscape:window-y="25"
     inkscape:window-maximized="0"
     units="px"
     inkscape:showpageshadow="2"
     inkscape:deskcolor="#d1d1d1" /><g
     id="g1"><g
       id="g882"><g
         id="g2"
         transform="translate(0,0.1285646)"><text
           xml:space="preserve"
           style="font-style:normal;font-variant:normal;font-weight:normal;font-stretch:normal;font-size:2.15713px;line-height:1.25;font-family:Arial;-inkscape-font-specification:Arial;letter-spacing:0.201083px;word-spacing:0px;fill:#2e4f6e;fill-opacity:1;stroke:none;stroke-width:0.269641"
           x="0.68608057"
           y="2.6749084"
           id="text857"><tspan
             sodipodi:role="line"
             id="tspan855"
             x="0.68608057"
             y="2.6749084"
             style="font-style:normal;font-variant:normal;font-weight:bold;font-stretch:normal;font-size:2.15713px;font-family:Arial;-inkscape-font-specification:Arial;fill:#2e4f6e;fill-opacity:1;stroke-width:0.269641">{?}</tspan></text><path
           style="fill:none;fill-opacity:1;stroke:#2e4f6e;stroke-width:0.15;stroke-linecap:square;stroke-linejoin:round;stroke-dasharray:none;stroke-opacity:1"
           d="M 2.3846447,0.27844134 V 0.70830819"
           id="path1" /><path
           style="fill:none;fill-opacity:1;stroke:#2e4f6e;stroke-width:0.15;stroke-linecap:square;stroke-linejoin:round;stroke-dasharray:none;stroke-opacity:1"
           d="M 2.3857679,3.1974138 V 3.6272807"
           id="path1-2" /></g></g></g></svg>
